R Data Types and Transformations with dplyr
…
.panel1-arrange-rotate[

```r
library(tidyverse)  #loads dplyr
ds <- starwars  #loads built-in star wars database
*arrange(ds, name)
```
]
 
.panel2-arrange-rotate[

```
# A tibble: 87 × 14
   name    height  mass hair_color skin_color  eye_color birth_year sex   gender
   <chr>    <int> <dbl> <chr>      <chr>       <chr>          <dbl> <chr> <chr> 
 1 Ackbar     180    83 none       brown mott… orange          41   male  mascu…
 2 Adi Ga…    184    50 none       dark        blue            NA   fema… femin…
 3 Anakin…    188    84 blond      fair        blue            41.9 male  mascu…
 4 Arvel …     NA    NA brown      fair        brown           NA   male  mascu…
 5 Ayla S…    178    55 none       blue        hazel           48   fema… femin…
 6 Bail P…    191    NA black      tan         brown           67   male  mascu…
 7 Barris…    166    50 black      yellow      blue            40   fema… femin…
 8 BB8         NA    NA none       none        black           NA   none  mascu…
 9 Ben Qu…    163    65 none       grey, gree… orange          NA   male  mascu…
10 Beru W…    165    75 brown      light       blue            47   fema… femin…
# … with 77 more rows, and 5 more variables: homeworld <chr>, species <chr>,
#   films <list>, vehicles <list>, starships <list>
```
…
.panel1-arrange-rotate[

```r
library(tidyverse)  #loads dplyr
ds <- starwars  #loads built-in star wars database
*arrange(ds, height)
```
]
 
.panel2-arrange-rotate[

```
# A tibble: 87 × 14
   name     height  mass hair_color skin_color eye_color birth_year sex   gender
   <chr>     <int> <dbl> <chr>      <chr>      <chr>          <dbl> <chr> <chr> 
 1 Yoda         66    17 white      green      brown            896 male  mascu…
 2 Ratts T…     79    15 none       grey, blue unknown           NA male  mascu…
 3 Wicket …     88    20 brown      brown      brown              8 male  mascu…
 4 Dud Bolt     94    45 none       blue, grey yellow            NA male  mascu…
 5 R2-D2        96    32 <NA>       white, bl… red               33 none  mascu…
 6 R4-P17       96    NA none       silver, r… red, blue         NA none  femin…
 7 R5-D4        97    32 <NA>       white, red red               NA none  mascu…
 8 Sebulba     112    40 none       grey, red  orange            NA male  mascu…
 9 Gasgano     122    NA none       white, bl… black             NA male  mascu…
10 Watto       137    NA black      blue, grey yellow            NA male  mascu…
# … with 77 more rows, and 5 more variables: homeworld <chr>, species <chr>,
#   films <list>, vehicles <list>, starships <list>
```
…
.panel1-arrange-rotate[

```r
library(tidyverse)  #loads dplyr
ds <- starwars  #loads built-in star wars database
*arrange(ds, -height, mass)
```
]
 
.panel2-arrange-rotate[

```
# A tibble: 87 × 14
   name    height  mass hair_color skin_color  eye_color birth_year sex   gender
   <chr>    <int> <dbl> <chr>      <chr>       <chr>          <dbl> <chr> <chr> 
 1 Yarael…    264    NA none       white       yellow          NA   male  mascu…
 2 Tarfful    234   136 brown      brown       blue            NA   male  mascu…
 3 Lama Su    229    88 none       grey        black           NA   male  mascu…
 4 Chewba…    228   112 brown      unknown     blue           200   male  mascu…
 5 Roos T…    224    82 none       grey        orange          NA   male  mascu…
 6 Grievo…    216   159 none       brown, whi… green, y…       NA   male  mascu…
 7 Taun We    213    NA none       grey        black           NA   fema… femin…
 8 Tion M…    206    80 none       grey        black           NA   male  mascu…
 9 Rugor …    206    NA none       green       orange          NA   male  mascu…
10 Darth …    202   136 none       white       yellow          41.9 male  mascu…
# … with 77 more rows, and 5 more variables: homeworld <chr>, species <chr>,
#   films <list>, vehicles <list>, starships <list>
```
…
.panel1-arrange-rotate[

```r
library(tidyverse)  #loads dplyr
ds <- starwars  #loads built-in star wars database
*arrange(ds, eye_color, hair_color)
```
]
 
.panel2-arrange-rotate[

```
# A tibble: 87 × 14
   name   height  mass hair_color skin_color   eye_color birth_year sex   gender
   <chr>   <int> <dbl> <chr>      <chr>        <chr>          <dbl> <chr> <chr> 
 1 Nien …    160    68 none       grey         black             NA male  mascu…
 2 Gasga…    122    NA none       white, blue  black             NA male  mascu…
 3 Kit F…    196    87 none       green        black             NA male  mascu…
 4 Plo K…    188    80 none       orange       black             22 male  mascu…
 5 Lama …    229    88 none       grey         black             NA male  mascu…
 6 Taun …    213    NA none       grey         black             NA fema… femin…
 7 Shaak…    178    57 none       red, blue, … black             NA fema… femin…
 8 Tion …    206    80 none       grey         black             NA male  mascu…
 9 BB8        NA    NA none       none         black             NA none  mascu…
10 Greedo    173    74 <NA>       green        black             44 male  mascu…
# … with 77 more rows, and 5 more variables: homeworld <chr>, species <chr>,
#   films <list>, vehicles <list>, starships <list>
```
…
---
count: false

.panel1-filter-rotate[

```r
*filter(ds, eye_color %in% c("blue","brown"))
```
]
 
.panel2-filter-rotate[

```
# A tibble: 40 × 14
   name     height  mass hair_color skin_color eye_color birth_year sex   gender
   <chr>     <int> <dbl> <chr>      <chr>      <chr>          <dbl> <chr> <chr> 
 1 Luke Sk…    172    77 blond      fair       blue            19   male  mascu…
 2 Leia Or…    150    49 brown      light      brown           19   fema… femin…
 3 Owen La…    178   120 brown, gr… light      blue            52   male  mascu…
 4 Beru Wh…    165    75 brown      light      blue            47   fema… femin…
 5 Biggs D…    183    84 black      light      brown           24   male  mascu…
 6 Anakin …    188    84 blond      fair       blue            41.9 male  mascu…
 7 Wilhuff…    180    NA auburn, g… fair       blue            64   male  mascu…
 8 Chewbac…    228   112 brown      unknown    blue           200   male  mascu…
 9 Han Solo    180    80 brown      fair       brown           29   male  mascu…
10 Jek Ton…    180   110 brown      fair       blue            NA   male  mascu…
# … with 30 more rows, and 5 more variables: homeworld <chr>, species <chr>,
#   films <list>, vehicles <list>, starships <list>
```
…
---
count: false

.panel1-filter-rotate[

```r
*filter(ds, !(eye_color %in% c("blue","brown")))
```
]
 
.panel2-filter-rotate[

```
# A tibble: 47 × 14
   name    height  mass hair_color  skin_color eye_color birth_year sex   gender
   <chr>    <int> <dbl> <chr>       <chr>      <chr>          <dbl> <chr> <chr> 
 1 C-3PO      167    75 <NA>        gold       yellow         112   none  mascu…
 2 R2-D2       96    32 <NA>        white, bl… red             33   none  mascu…
 3 Darth …    202   136 none        white      yellow          41.9 male  mascu…
 4 R5-D4       97    32 <NA>        white, red red             NA   none  mascu…
 5 Obi-Wa…    182    77 auburn, wh… fair       blue-gray       57   male  mascu…
 6 Greedo     173    74 <NA>        green      black           44   male  mascu…
 7 Jabba …    175  1358 <NA>        green-tan… orange         600   herm… mascu…
 8 Wedge …    170    77 brown       fair       hazel           21   male  mascu…
 9 Palpat…    170    75 grey        pale       yellow          82   male  mascu…
10 IG-88      200   140 none        metal      red             15   none  mascu…
# … with 37 more rows, and 5 more variables: homeworld <chr>, species <chr>,
#   films <list>, vehicles <list>, starships <list>
```
…
---
count: false

.panel1-select-rotate[

```r
*select(ds, name)
```
]
 
.panel2-select-rotate[

```
# A tibble: 87 × 1
   name              
   <chr>             
 1 Luke Skywalker    
 2 C-3PO             
 3 R2-D2             
 4 Darth Vader       
 5 Leia Organa       
 6 Owen Lars         
 7 Beru Whitesun lars
 8 R5-D4             
 9 Biggs Darklighter 
10 Obi-Wan Kenobi    
# … with 77 more rows
```
…
---
count: false

.panel1-select-rotate[

```r
*select(ds, name, height, mass)
```
]
 
.panel2-select-rotate[

```
# A tibble: 87 × 3
   name               height  mass
   <chr>               <int> <dbl>
 1 Luke Skywalker        172    77
 2 C-3PO                 167    75
 3 R2-D2                  96    32
 4 Darth Vader           202   136
 5 Leia Organa           150    49
 6 Owen Lars             178   120
 7 Beru Whitesun lars    165    75
 8 R5-D4                  97    32
 9 Biggs Darklighter     183    84
10 Obi-Wan Kenobi        182    77
# … with 77 more rows
```
…
---
count: false

.panel1-select-rotate[

```r
*select(ds, c("name", "height", "mass"))
```
]
 
.panel2-select-rotate[

```
# A tibble: 87 × 3
   name               height  mass
   <chr>               <int> <dbl>
 1 Luke Skywalker        172    77
 2 C-3PO                 167    75
 3 R2-D2                  96    32
 4 Darth Vader           202   136
 5 Leia Organa           150    49
 6 Owen Lars             178   120
 7 Beru Whitesun lars    165    75
 8 R5-D4                  97    32
 9 Biggs Darklighter     183    84
10 Obi-Wan Kenobi        182    77
# … with 77 more rows
```
…
---
count: false

.panel1-select-rotate[

```r
*select(ds, name:eye_color)
```
]
 
.panel2-select-rotate[

```
# A tibble: 87 × 6
   name               height  mass hair_color    skin_color  eye_color
   <chr>               <int> <dbl> <chr>         <chr>       <chr>    
 1 Luke Skywalker        172    77 blond         fair        blue     
 2 C-3PO                 167    75 <NA>          gold        yellow   
 3 R2-D2                  96    32 <NA>          white, blue red      
 4 Darth Vader           202   136 none          white       yellow   
 5 Leia Organa           150    49 brown         light       brown    
 6 Owen Lars             178   120 brown, grey   light       blue     
 7 Beru Whitesun lars    165    75 brown         light       blue     
 8 R5-D4                  97    32 <NA>          white, red  red      
 9 Biggs Darklighter     183    84 black         light       brown    
10 Obi-Wan Kenobi        182    77 auburn, white fair        blue-gray
# … with 77 more rows
```
…
---
count: false

.panel1-select-rotate[

```r
*select(ds, -(eye_color:starships))
```
]
 
.panel2-select-rotate[

```
# A tibble: 87 × 5
   name               height  mass hair_color    skin_color 
   <chr>               <int> <dbl> <chr>         <chr>      
 1 Luke Skywalker        172    77 blond         fair       
 2 C-3PO                 167    75 <NA>          gold       
 3 R2-D2                  96    32 <NA>          white, blue
 4 Darth Vader           202   136 none          white      
 5 Leia Organa           150    49 brown         light      
 6 Owen Lars             178   120 brown, grey   light      
 7 Beru Whitesun lars    165    75 brown         light      
 8 R5-D4                  97    32 <NA>          white, red 
 9 Biggs Darklighter     183    84 black         light      
10 Obi-Wan Kenobi        182    77 auburn, white fair       
# … with 77 more rows
```
…
---
count: false

.panel1-select-rotate[

```r
*select(ds, ends_with("color"))
```
]
 
.panel2-select-rotate[

```
# A tibble: 87 × 3
   hair_color    skin_color  eye_color
   <chr>         <chr>       <chr>    
 1 blond         fair        blue     
 2 <NA>          gold        yellow   
 3 <NA>          white, blue red      
 4 none          white       yellow   
 5 brown         light       brown    
 6 brown, grey   light       blue     
 7 brown         light       blue     
 8 <NA>          white, red  red      
 9 black         light       brown    
10 auburn, white fair        blue-gray
# … with 77 more rows
```
…
---
count: false

.panel1-select-rotate[

```r
*select(ds, contains("_"))
```
]
 
.panel2-select-rotate[

```
# A tibble: 87 × 4
   hair_color    skin_color  eye_color birth_year
   <chr>         <chr>       <chr>          <dbl>
 1 blond         fair        blue            19  
 2 <NA>          gold        yellow         112  
 3 <NA>          white, blue red             33  
 4 none          white       yellow          41.9
 5 brown         light       brown           19  
 6 brown, grey   light       blue            52  
 7 brown         light       blue            47  
 8 <NA>          white, red  red             NA  
 9 black         light       brown           24  
10 auburn, white fair        blue-gray       57  
# … with 77 more rows
```
…
---
count: false

.panel1-select-rotate[

```r
*select(ds, is.numeric)
```
]
 
.panel2-select-rotate[

```
# A tibble: 87 × 3
   height  mass birth_year
    <int> <dbl>      <dbl>
 1    172    77       19  
 2    167    75      112  
 3     96    32       33  
 4    202   136       41.9
 5    150    49       19  
 6    178   120       52  
 7    165    75       47  
 8     97    32       NA  
 9    183    84       24  
10    182    77       57  
# … with 77 more rows
```
…
---
count: false

.panel1-select-rotate[

```r
*select(ds, is.character)
```
]
 
.panel2-select-rotate[

```
# A tibble: 87 × 8
   name        hair_color   skin_color eye_color sex   gender  homeworld species
   <chr>       <chr>        <chr>      <chr>     <chr> <chr>   <chr>     <chr>  
 1 Luke Skywa… blond        fair       blue      male  mascul… Tatooine  Human  
 2 C-3PO       <NA>         gold       yellow    none  mascul… Tatooine  Droid  
 3 R2-D2       <NA>         white, bl… red       none  mascul… Naboo     Droid  
 4 Darth Vader none         white      yellow    male  mascul… Tatooine  Human  
 5 Leia Organa brown        light      brown     fema… femini… Alderaan  Human  
 6 Owen Lars   brown, grey  light      blue      male  mascul… Tatooine  Human  
 7 Beru White… brown        light      blue      fema… femini… Tatooine  Human  
 8 R5-D4       <NA>         white, red red       none  mascul… Tatooine  Droid  
 9 Biggs Dark… black        light      brown     male  mascul… Tatooine  Human  
10 Obi-Wan Ke… auburn, whi… fair       blue-gray male  mascul… Stewjon   Human  
# … with 77 more rows
```
…
---
count: false

.panel1-noassignment-auto[

```r
*select(ds, name, height, eye_color)
```
]
 
.panel2-noassignment-auto[

```
# A tibble: 87 × 3
   name               height eye_color
   <chr>               <int> <chr>    
 1 Luke Skywalker        172 blue     
 2 C-3PO                 167 yellow   
 3 R2-D2                  96 red      
 4 Darth Vader           202 yellow   
 5 Leia Organa           150 brown    
 6 Owen Lars             178 blue     
 7 Beru Whitesun lars    165 blue     
 8 R5-D4                  97 red      
 9 Biggs Darklighter     183 brown    
10 Obi-Wan Kenobi        182 blue-gray
# … with 77 more rows
```
…
---
count: false

.panel1-noassignment-auto[

```r
select(ds, name, height, eye_color)
*arrange(ds, height, eye_color)
```
]
 
.panel2-noassignment-auto[

```
# A tibble: 87 × 3
   name               height eye_color
   <chr>               <int> <chr>    
 1 Luke Skywalker        172 blue     
 2 C-3PO                 167 yellow   
 3 R2-D2                  96 red      
 4 Darth Vader           202 yellow   
 5 Leia Organa           150 brown    
 6 Owen Lars             178 blue     
 7 Beru Whitesun lars    165 blue     
 8 R5-D4                  97 red      
 9 Biggs Darklighter     183 brown    
10 Obi-Wan Kenobi        182 blue-gray
# … with 77 more rows
```

```
# A tibble: 87 × 14
   name     height  mass hair_color skin_color eye_color birth_year sex   gender
   <chr>     <int> <dbl> <chr>      <chr>      <chr>          <dbl> <chr> <chr> 
 1 Yoda         66    17 white      green      brown            896 male  mascu…
 2 Ratts T…     79    15 none       grey, blue unknown           NA male  mascu…
 3 Wicket …     88    20 brown      brown      brown              8 male  mascu…
 4 Dud Bolt     94    45 none       blue, grey yellow            NA male  mascu…
 5 R2-D2        96    32 <NA>       white, bl… red               33 none  mascu…
 6 R4-P17       96    NA none       silver, r… red, blue         NA none  femin…
 7 R5-D4        97    32 <NA>       white, red red               NA none  mascu…
 8 Sebulba     112    40 none       grey, red  orange            NA male  mascu…
 9 Gasgano     122    NA none       white, bl… black             NA male  mascu…
10 Watto       137    NA black      blue, grey yellow            NA male  mascu…
# … with 77 more rows, and 5 more variables: homeworld <chr>, species <chr>,
#   films <list>, vehicles <list>, starships <list>
```
…
.panel1-noassignment-auto[

```r
select(ds, name, height, eye_color)
arrange(ds, height, eye_color)
*filter(ds, height > 100)
```
]
 
.panel2-noassignment-auto[

```
# A tibble: 87 × 3
   name               height eye_color
   <chr>               <int> <chr>    
 1 Luke Skywalker        172 blue     
 2 C-3PO                 167 yellow   
 3 R2-D2                  96 red      
 4 Darth Vader           202 yellow   
 5 Leia Organa           150 brown    
 6 Owen Lars             178 blue     
 7 Beru Whitesun lars    165 blue     
 8 R5-D4                  97 red      
 9 Biggs Darklighter     183 brown    
10 Obi-Wan Kenobi        182 blue-gray
# … with 77 more rows
```

```
# A tibble: 87 × 14
   name     height  mass hair_color skin_color eye_color birth_year sex   gender
   <chr>     <int> <dbl> <chr>      <chr>      <chr>          <dbl> <chr> <chr> 
 1 Yoda         66    17 white      green      brown            896 male  mascu…
 2 Ratts T…     79    15 none       grey, blue unknown           NA male  mascu…
 3 Wicket …     88    20 brown      brown      brown              8 male  mascu…
 4 Dud Bolt     94    45 none       blue, grey yellow            NA male  mascu…
 5 R2-D2        96    32 <NA>       white, bl… red               33 none  mascu…
 6 R4-P17       96    NA none       silver, r… red, blue         NA none  femin…
 7 R5-D4        97    32 <NA>       white, red red               NA none  mascu…
 8 Sebulba     112    40 none       grey, red  orange            NA male  mascu…
 9 Gasgano     122    NA none       white, bl… black             NA male  mascu…
10 Watto       137    NA black      blue, grey yellow            NA male  mascu…
# … with 77 more rows, and 5 more variables: homeworld <chr>, species <chr>,
#   films <list>, vehicles <list>, starships <list>
```

```
# A tibble: 74 × 14
   name    height  mass hair_color  skin_color eye_color birth_year sex   gender
   <chr>    <int> <dbl> <chr>       <chr>      <chr>          <dbl> <chr> <chr> 
 1 Luke S…    172    77 blond       fair       blue            19   male  mascu…
 2 C-3PO      167    75 <NA>        gold       yellow         112   none  mascu…
 3 Darth …    202   136 none        white      yellow          41.9 male  mascu…
 4 Leia O…    150    49 brown       light      brown           19   fema… femin…
 5 Owen L…    178   120 brown, grey light      blue            52   male  mascu…
 6 Beru W…    165    75 brown       light      blue            47   fema… femin…
 7 Biggs …    183    84 black       light      brown           24   male  mascu…
 8 Obi-Wa…    182    77 auburn, wh… fair       blue-gray       57   male  mascu…
 9 Anakin…    188    84 blond       fair       blue            41.9 male  mascu…
10 Wilhuf…    180    NA auburn, gr… fair       blue            64   male  mascu…
# … with 64 more rows, and 5 more variables: homeworld <chr>, species <chr>,
#   films <list>, vehicles <list>, starships <list>
```
…
